^C:\USERS\JJOYN\SOURCE\REPOS\CS228 PROJECT 3\CS228 PROJECT 3\DEBUG\LINKEDLIST.OBJ|C:\USERS\JJOYN\SOURCE\REPOS\CS228 PROJECT 3\CS228 PROJECT 3\DEBUG\SOURCE.OBJ
C:\USERS\JJOYN\SOURCE\REPOS\CS228 PROJECT 3\DEBUG\CS228 PROJECT 3.EXE
C:\USERS\JJOYN\SOURCE\REPOS\CS228 PROJECT 3\CS228 PROJECT 3\DEBUG\CS228 PROJECT 3.ILK
C:\USERS\JJOYN\SOURCE\REPOS\CS228 PROJECT 3\DEBUG\CS228 PROJECT 3.PDB
