^C:\USERS\JJOYN\SOURCE\REPOS\MAIN\PROJECT001\PROJECT001\DEBUG\ARRAY.OBJ|C:\USERS\JJOYN\SOURCE\REPOS\MAIN\PROJECT001\PROJECT001\DEBUG\PROJECT001.OBJ
C:\USERS\JJOYN\SOURCE\REPOS\MAIN\PROJECT001\PROJECT001\DEBUG\PROJECT001.ILK
C:\USERS\JJOYN\SOURCE\REPOS\MAIN\PROJECT001\DEBUG\PROJECT001.EXE
C:\USERS\JJOYN\SOURCE\REPOS\MAIN\PROJECT001\DEBUG\PROJECT001.PDB
